Tarea 2
…
# A tibble: 6 × 2
      j dist_tot
  <dbl>    <dbl>
1   352 4379875.
2  1184 4491465.
3   814 4580638.
4   647 4610756.
5   627 4646237.
6   176 4679610.

distancias %>% filter(j==352)

# A tibble: 1,491 × 10
     mzn c_lon c_lat CVE_MZA     j      id latitud longitud manzana     d
   <dbl> <dbl> <dbl> <chr>   <dbl>   <dbl>   <dbl>    <dbl>   <dbl> <dbl>
 1     1 -99.2  19.4 031       352 6323906    19.4    -99.2       3 1311.
 2     2 -99.2  19.4 024       352 6323906    19.4    -99.2       3  584.
 3     3 -99.2  19.4 068       352 6323906    19.4    -99.2       3 2650.
 4     4 -99.2  19.3 024       352 6323906    19.4    -99.2       3 2368.
 5     5 -99.2  19.4 004       352 6323906    19.4    -99.2       3 1182.
 6     6 -99.3  19.4 031       352 6323906    19.4    -99.2       3 3039.
 7     7 -99.3  19.4 023       352 6323906    19.4    -99.2       3 3190.
 8     8 -99.3  19.4 022       352 6323906    19.4    -99.2       3 3148.
 9     9 -99.2  19.4 007       352 6323906    19.4    -99.2       3 1634.
10    10 -99.3  19.4 018       352 6323906    19.4    -99.2       3 3700.
# ℹ 1,481 more rows
…
